{
  "names": [
    {
      "fname": "Ibrahim",
      "lname": "Abraham",
      "email": "unortodoxsolutions@gmail.com",
      "phone": "+12404958086",
      "total": "$10000",
      "pledge": "$21000"
    },
    {
      "fname": "Oluwasanmi",
      "lname": "Onemano",
      "email": "oluwasanmionemano@gmail.com",
      "phone": "+2349028472853",
      "total": 56,
      "pledge": "150k"

    },
    {
      "fname": "Victoria",
      "lname": "Meliga",
      "email": "victoriameliga@gmail.com",
      "phone": "+2348036739275",
      "total": 19,
      "pledge": "75k"

    },
    {
      "fname": "Ane",
      "lname": "Joe",
      "email": "rexItodo@gmail.com",
      "phone": "+2347018571322",
      "total": 96,
      "pledge": "400k"

    },
    {
      "fname": "Abdulhakeem",
      "lname": "Ayodeji",
      "email": "ayohakeem26@gmail.com",
      "phone": "+2348139947185",
      "total": 80,
      "pledge": "250k"

    },
    {
      "fname": "Ola",
      "lname": "Olarinde",
      "email": "oolarinde@hotmail.com",
      "phone": "+13015232038",
      "total": "$3,000",
      "pledge": "$10,000"
    },
    {
      "fname": "Temitope",
      "lname": "Alade",
      "email": "temitop@hotmail.com",
      "phone": "+12405659934",
      "total": "$5,000",
      "pledge": "$25,000"
    }
  ]
}